Introduccin a Shiny app de R
…
<a id="outfb7a81deba3e780f" class="btn btn-default shiny-download-link " href="" target="_blank" download>
<i class="fa fa-download" role="presentation" aria-label="download icon"></i>
Download
</a>

```r
ranked_by_inf
```

```
## # A tibble: 174 x 6
##    pais       inflacion abreviatura continente region                  rank
##    <chr>          <dbl> <chr>       <chr>      <chr>                  <int>
##  1 Argentina      0.515 ARG         Amrica    Amrica del Sur            1
##  2 Angola         0.359 AGO         Europa     Europa meridional          2
##  3 Uzbekistan     0.192 UZB         Asia       Asia central               3
##  4 Sudan          0.178 SDN         frica     frica septentrional       4
##  5 Surinam        0.161 SUR         Amrica    Amrica del Sur            5
##  6 Haiti          0.142 HTI         Amrica    Caribe                     6
##  7 Turquia        0.139 TUR         Asia       Asia occidental            7
##  8 Egipto         0.136 EGY         frica     frica septentrional       8
##  9 Etiopia        0.132 ETH         frica     frica oriental            9
## 10 Nigeria        0.104 NGA         frica     frica occidental         10
## #  with 164 more rows
```
…
20 / 22

Tabla

downloadHandler(
        filename = 'Download.csv',
        content = function(file) {
            write.csv(Data[input[["table1_rows_all"]],], file, row.names = FALSE)}
    )

Download

ranked_by_inf

## # A tibble: 174 x 6
##    pais       inflacion abreviatura continente region                  rank
##    <chr>          <dbl> <chr>       <chr>      <chr>                  <int>
##  1 Argentina      0.515 ARG         Amrica&nbsp;&nbsp;  Amrica del Sur&nbsp;&nbsp;          1
##  2 Angola         0.359 AGO         Europa&nbsp;&nbsp;   Europa meridional&nbsp;&nbsp;        2
##  3 Uzbekistan     0.192 UZB         Asia&nbsp;&nbsp;     Asia central&nbsp;&nbsp;             3
##  4 Sudan          0.178 SDN         frica&nbsp;&nbsp;   frica septentrional&nbsp;&nbsp;     4
##  5 Surinam        0.161 SUR         Amrica&nbsp;&nbsp;  Amrica del Sur&nbsp;&nbsp;          5
##  6 Haiti          0.142 HTI         Amrica&nbsp;&nbsp;  Caribe&nbsp;&nbsp;                   6
##  7 Turquia        0.139 TUR         Asia&nbsp;&nbsp;     Asia occidental&nbsp;&nbsp;          7
##  8 Egipto         0.136 EGY         frica&nbsp;&nbsp;   frica septentrional&nbsp;&nbsp;     8
##  9 Etiopia        0.132 ETH         frica&nbsp;&nbsp;   frica oriental&nbsp;&nbsp;          9
## 10 Nigeria        0.104 NGA         frica&nbsp;&nbsp;   frica occidental&nbsp;&nbsp;       10
## #  with 164 more rows
…
